{
	"Ремонт": [
		{
			"Объект": "Фасад главного корпуса",
			"Износ_процентов": "10",
			"Финансирование": {
				"Из_бюджета": {
					"План": {
						"ПППГ": "1",
						"ППГ": "3",
						"ПГ": "5"
					},
					"Факт": {
						"ПППГ": "2",
						"ППГ": "4",
						"ПГ": "6"
					}
				},
				"Из_внебюджета": {
					"План": {
						"ПППГ": "7",
						"ППГ": "9",
						"ПГ": "11"
					},
					"Факт": {
						"ПППГ": "8",
						"ППГ": "10",
						"ПГ": "12"
					}
				}
			}
		}
	],
	"Обслуживание": {
		"Зданий": {
			"Из_бюджета": {
				"План": {
					"ПППГ": "",
					"ППГ": "",
					"ПГ": ""
				},
				"Факт": {
					"ПППГ": "",
					"ППГ": "",
					"ПГ": ""
				}
			},
			"Из_внебюджета": {
				"План": {
					"ПППГ": "",
					"ППГ": "",
					"ПГ": ""
				},
				"Факт": {
					"ПППГ": "",
					"ППГ": "",
					"ПГ": ""
				}
			}
		},
		"Оборудования": {
			"Из_бюджета": {
				"План": {
					"ПППГ": "",
					"ППГ": "",
					"ПГ": ""
				},
				"Факт": {
					"ПППГ": "",
					"ППГ": "",
					"ПГ": ""
				}
			},
			"Из_внебюджета": {
				"План": {
					"ПППГ": "",
					"ППГ": "",
					"ПГ": ""
				},
				"Факт": {
					"ПППГ": "",
					"ППГ": "",
					"ПГ": ""
				}
			}
		}
	},
	"Метрологическая_проверка": {
		"Есть_договор": {
			"ПППГ": false,
			"ППГ": false,
			"ПГ": false
		},
		"Кратность": {
			"ПППГ": "",
			"ППГ": "",
			"ПГ": ""
		},
		"Стоимость": {
			"ПППГ": "",
			"ППГ": "",
			"ПГ": ""
		}
	}
}