{
	"Центр": {
		"Приказ_о_создании_центра": {
			"Номер": "",
			"Дата": ""
		},
		"Наименование_учреждения": "",
		"ИНН": "",
		"ОГРН": "",
		"Email": "",
		"Телефон": "",
		"Факс": "",
		"Индекс": "",
		"Адрес": "",
		"Руководитель": {
			"Фамилия": "",
			"Имя": "",
			"Отчество": "",
			"Должность": "",
			"Учёная_степень": "",
			"Учёное_звание": ""
		}
	},
	"Аудитория": {
		"Субъект_РФ": null,
		"Основные_отрасли": "",
		"Рабочих_мест": {
			"ПППГ": "",
			"ППГ": "",
			"ПГ": ""
		},
		"Число_подлежащих_ПМО": {
			"ПППГ": "",
			"ППГ": "",
			"ПГ": ""
		}
	},
	"Подразделения": [],
	"Суммарно": {
		"Итого": {
			"Должностей": {
				"ПППГ": "0",
				"ППГ": "0",
				"ПГ": "0"
			},
			"Занято_должностей": {
				"ПППГ": "0",
				"ППГ": "0",
				"ПГ": "0"
			},
			"Физ_лиц": {
				"ПППГ": "0",
				"ППГ": "0",
				"ПГ": "0"
			}
		},
		"Врачи": {
			"Должностей": {
				"ПППГ": "0",
				"ППГ": "0",
				"ПГ": "0"
			},
			"Занято_должностей": {
				"ПППГ": "0",
				"ППГ": "0",
				"ПГ": "0"
			},
			"Физ_лиц": {
				"ПППГ": "0",
				"ППГ": "0",
				"ПГ": "0"
			}
		},
		"Ср_медперсонал": {
			"Должностей": {
				"ПППГ": "0",
				"ППГ": "0",
				"ПГ": "0"
			},
			"Занято_должностей": {
				"ПППГ": "0",
				"ППГ": "0",
				"ПГ": "0"
			},
			"Физ_лиц": {
				"ПППГ": "0",
				"ППГ": "0",
				"ПГ": "0"
			}
		},
		"Мл_медперсонал": {
			"Должностей": {
				"ПППГ": "0",
				"ППГ": "0",
				"ПГ": "0"
			},
			"Занято_должностей": {
				"ПППГ": "0",
				"ППГ": "0",
				"ПГ": "0"
			},
			"Физ_лиц": {
				"ПППГ": "0",
				"ППГ": "0",
				"ПГ": "0"
			}
		},
		"Прочий_персонал": {
			"Должностей": {
				"ПППГ": "0",
				"ППГ": "0",
				"ПГ": "0"
			},
			"Занято_должностей": {
				"ПППГ": "0",
				"ППГ": "0",
				"ПГ": "0"
			},
			"Физ_лиц": {
				"ПППГ": "0",
				"ППГ": "0",
				"ПГ": "0"
			}
		}
	},
	"Койко_места": [],
	"Лицензии_и_комиссии": {
		"Лицензии": {
			"Помощь": {
				"В_амбулатории": {
					"ПППГ": false,
					"ППГ": false,
					"ПГ": false
				},
				"В_стационаре": {
					"ПППГ": false,
					"ППГ": false,
					"ПГ": false
				}
			},
			"Медсомотры": {
				"ПППГ": false,
				"ППГ": false,
				"ПГ": false
			},
			"Экспертизы": {
				"Пригодности": {
					"ПППГ": false,
					"ППГ": false,
					"ПГ": false
				},
				"Связи_с_профессией": {
					"ПППГ": false,
					"ППГ": false,
					"ПГ": false
				}
			}
		},
		"Комиссии_по_экспертизе": {
			"Пригодности": {
				"ПППГ": false,
				"ППГ": false,
				"ПГ": false
			},
			"Связи_с_профессией": {
				"ПППГ": false,
				"ППГ": false,
				"ПГ": false
			}
		}
	}
}