{
	"Лицензии": {
		"Помощь": {
			"В_амбулатории": {
				"ПППГ": true,
				"ППГ": false,
				"ПГ": true
			},
			"В_стационаре": {
				"ПППГ": false,
				"ППГ": true,
				"ПГ": false
			}
		},
		"Медсомотры": {
			"ПППГ": true,
			"ППГ": false,
			"ПГ": true
		},
		"Экспертизы": {
			"Пригодности": {
				"ПППГ": false,
				"ППГ": true,
				"ПГ": false
			},
			"Связи_с_профессией": {
				"ПППГ": true,
				"ППГ": false,
				"ПГ": true
			}
		}
	},
	"Комиссии_по_экспертизе": {
		"Пригодности": {
			"ПППГ": false,
			"ППГ": true,
			"ПГ": false
		},
		"Связи_с_профессией": {
			"ПППГ": true,
			"ППГ": false,
			"ПГ": true
		}
	}
}