{
	"Приказ_о_создании_центра": {
		"Номер": "345Г-876",
		"Дата": "11.11.2010"
	},
	"Наименование_учреждения": "Профцентр Челябинской области",
	"ИНН": "7731347089",
	"ОГРН": "1177746126040",
	"Email": "bnfa@uewryttyu.com",
	"Телефон": "111297",
	"Факс": "3412 756123",
	"Индекс": "444456",
	"Адрес": "Москва, Ильинка 38",
	"Руководитель": {
		"Фамилия": "Арканова",
		"Имя": "Евдокия",
		"Отчество": "Лукерьевна",
		"Должность": "директор",
		"Учёная_степень": "д.м.н.",
		"Учёное_звание": "прфессор"
	},
	"Организационная_форма": {
		"ПППГ": "В_структуре_ЛПУ",
		"ППГ": "Самостоятельною_юридическое_лицо",
		"ПГ": "Не_сформирован"
	}
}