{
	"Явно_перечисленные_в_бланке": [
		{
			"Метод": "метод 1",
			"Применяемый": {
				"ПППГ": false,
				"ППГ": false,
				"ПГ": false
			}
		},
		{
			"Метод": "метод 2",
			"Применяемый": {
				"ПППГ": false,
				"ППГ": false,
				"ПГ": false
			}
		},
		{
			"Метод": "метод 3",
			"Применяемый": {
				"ПППГ": false,
				"ППГ": false,
				"ПГ": false
			}
		},
		{
			"Метод": "метод 4",
			"Применяемый": {
				"ПППГ": false,
				"ППГ": false,
				"ПГ": false
			}
		}
	],
	"Прочие": [
		{
			"Метод": "Гадание на кофейной гуще",
			"Применяемый": {
				"ПППГ": false,
				"ППГ": true,
				"ПГ": false
			}
		}
	]
}